## Interface: 11302
## Title: Titan Panel Classic [|cffeda55fRegen|r] |cff00aa001.1.2.11302|r
## Notes: Adds a regen monitor to Titan panel to show HP/MANA regen
## Author: Titan Panel Development Team (http://www.titanpanel.org)
## SavedVariables: 
## OptionalDeps: 
## Dependencies: TitanClassic
## Version: 1.1.2.11302
## X-Child-Of: TitanClassic
TitanClassicRegen.xml