## Interface: 11302
## Title: Titan Panel Classic [|cffeda55fClock|r] |cff00aa001.1.2.11302|r
## Notes: Adds a clock to Titan Panel
## Author: Titan Panel Development Team (http://www.titanpanel.org)
## SavedVariables: 
## OptionalDeps: 
## Dependencies: TitanClassic
## Version: 1.1.2.11302
## X-Child-Of: TitanClassic
TitanClassicClock.xml
