## Interface: 11302
## Title: Global Ignore List Classic
## Notes: Maintain ignore list across all characters, filter chat spam and more
## Author: IceyPop
## Version: 1.13.1
## SavedVariables: GlobalIgnoreDB
## SavedVariablesPerCharacter: GlobalIgnoreImported

GIL_Localization.lua
GIL_Globals.lua
GIL_UI.lua
GIL_BlizzardUI.lua
GlobalIgnoreList.lua