## Interface: 11302
## Title: Titan Panel Classic [|cffeda55fRepair|r] |cff00aa001.1.2.11302|r
## Notes: Provides a configurable durability display. Also adds the ability to auto repair items and inventory at vendors
## Author: Titan Panel Development Team (http://www.titanpanel.org)
## SavedVariables: 
## OptionalDeps: 
## Dependencies: TitanClassic
## Version: 1.1.2.11302
## X-Child-Of: TitanClassic
TitanClassicRepair.xml
